Final Project
…
# High level view of the data
read_csv ("kc_house_data.csv")

## Rows: 21613 Columns: 21

## -- Column specification --------------------------------------------------------
## Delimiter: ","
## dbl  (20): id, price, bedrooms, bathrooms, sqft_living, sqft_lot, floors, wa...
## dttm  (1): date

## 
## i Use `spec()` to retrieve the full column specification for this data.
## i Specify the column types or set `show_col_types = FALSE` to quiet this message.

## # A tibble: 21,613 x 21
##            id date                  price bedrooms bathrooms sqft_living sqft_lot
##         <dbl> <dttm>                <dbl>    <dbl>     <dbl>       <dbl>    <dbl>
##  1 7129300520 2014-10-13 00:00:00  221900        3      1           1180     5650
##  2 6414100192 2014-12-09 00:00:00  538000        3      2.25        2570     7242
##  3 5631500400 2015-02-25 00:00:00  180000        2      1            770    10000
##  4 2487200875 2014-12-09 00:00:00  604000        4      3           1960     5000
##  5 1954400510 2015-02-18 00:00:00  510000        3      2           1680     8080
##  6 7237550310 2014-05-12 00:00:00 1230000        4      4.5         5420   101930
##  7 1321400060 2014-06-27 00:00:00  257500        3      2.25        1715     6819
##  8 2008000270 2015-01-15 00:00:00  291850        3      1.5         1060     9711
##  9 2414600126 2015-04-15 00:00:00  229500        3      1           1780     7470
## 10 3793500160 2015-03-12 00:00:00  323000        3      2.5         1890     6560
## # ... with 21,603 more rows, and 14 more variables: floors <dbl>,
## #   waterfront <dbl>, view <dbl>, condition <dbl>, grade <dbl>,
## #   sqft_above <dbl>, sqft_basement <dbl>, yr_built <dbl>, yr_renovated <dbl>,
## #   zipcode <dbl>, lat <dbl>, long <dbl>, sqft_living15 <dbl>, sqft_lot15 <dbl>
…
# Houses with both special features.
house.price.waterfrontandview <- df_waterfront_yes %>% filter(view_yes_no == "yes")
house.price.waterfrontandview

## # A tibble: 163 x 21
##            id date                  price bedrooms bathrooms sqft.living sqft.lot
##         <dbl> <dttm>                <dbl>    <dbl>     <dbl>       <dbl>    <dbl>
##  1  822039084 2015-03-11 00:00:00 1350000        3      2.5         2753    65005
##  2 8096000060 2015-04-13 00:00:00  655000        2      1.75        1450    15798
##  3 2025069065 2014-09-29 00:00:00 2400000        4      2.5         3650     8354
##  4 2123039032 2014-10-27 00:00:00  369900        1      0.75         760    10079
##  5 3225069065 2014-06-24 00:00:00 3080000        4      5           4550    18641
##  6 2122039094 2014-11-26 00:00:00  705000        3      3           1970    20978
##  7  622049114 2015-02-18 00:00:00 2130000        3      2.5         5403    24069
##  8 3760500116 2014-11-20 00:00:00 3070000        3      2.5         3930    55867
##  9 7567600045 2014-08-27 00:00:00  825000        2      1           1150    12775
## 10 4055701200 2015-04-21 00:00:00 1960000        4      2.75        3120     7898
## # ... with 153 more rows, and 14 more variables: floors <dbl>,
## #   waterfront <dbl>, view <dbl>, condition <dbl>, grade <dbl>,
## #   sqft.above <dbl>, sqft.basement <dbl>, yr.built <dbl>, yr.renovated <dbl>,
## #   zipcode <dbl>, waterfront_yes_no <fct>, view_yes_no <fct>,
## #   view_TRUE_FALSE <fct>, price.log <dbl>
…
test_data$prediction = predict(house.price.regressionmod1.2, newdata = test_data)
test_data

## # A tibble: 6,484 x 22
##            id date                  price bedrooms bathrooms sqft.living sqft.lot
##         <dbl> <dttm>                <dbl>    <dbl>     <dbl>       <dbl>    <dbl>
##  1 6414100192 2014-12-09 00:00:00  538000        3      2.25        2570     7242
##  2 7237550310 2014-05-12 00:00:00 1230000        4      4.5         5420   101930
##  3 1321400060 2014-06-27 00:00:00  257500        3      2.25        1715     6819
##  4 9212900260 2014-05-27 00:00:00  468000        2      1           1160     6000
##  5 6054650070 2014-10-07 00:00:00  400000        3      1.75        1370     9680
##  6 9297300055 2015-01-24 00:00:00  650000        4      3           2950     5000
##  7 6865200140 2014-05-29 00:00:00  485000        4      1           1600     4300
##  8 7137970340 2014-07-03 00:00:00  285000        5      2.5         2270     6300
##  9 1794500383 2014-06-26 00:00:00  937000        3      1.75        2450     2691
## 10 5101402488 2014-06-24 00:00:00  438000        3      1.75        1520     6380
## # ... with 6,474 more rows, and 15 more variables: floors <dbl>,
## #   waterfront <dbl>, view <dbl>, condition <dbl>, grade <dbl>,
## #   sqft.above <dbl>, sqft.basement <dbl>, yr.built <dbl>, yr.renovated <dbl>,
## #   zipcode <dbl>, waterfront_yes_no <fct>, view_yes_no <fct>,
## #   view_TRUE_FALSE <fct>, price.log <dbl>, prediction <dbl>
…
